{
  "$schema": "http://json-schema.org/draft-04/schema#",
  "type": "object",
  "properties": {
    "response": {
      "type": "array",
      "items": {
        "type": "object",
        "additionalProperties": false,
        "properties": {
          "id": {
            "type": "integer"
          },
          "ignore_scope_id": {
            "type": "integer"
          },
          "ignore_scope_type": {
            "type": "string"
          },
          "signature": {
            "type": "string"
          },
          "comment": {
            "type": ["null", "string"]
          },
          "created_by": {
            "type": "string"
          },
          "created_at": {
            "type": "string"
          },
          "updated_at": {
            "type": "string"
          }
        },
        "required": [
          "id",
          "ignore_scope_id",
          "ignore_scope_type",
          "signature",
          "created_by",
          "created_at",
          "updated_at"
        ]
      }
    }
  },
  "required": [
    "response"
  ]
}
