{
  "$schema": "http://json-schema.org/draft-04/schema#",
  "type": "object",
  "properties": {
    "response": {
      "type": "array",
      "items": {
        "type": "object",
        "additionalProperties": false,
        "properties": {
          "id": {
            "type": "integer"
          },
          "security_test_repository_id": {
            "type": "integer"
          },
          "name": {
            "type": "string"
          },
          "prog_args": {
            "type": "string"
          },
          "default_config": {
            "type": "object"
          },
          "category": {
            "type": "string"
          },
          "configurable": {
            "type": "boolean"
          },
          "help_url": {
            "type": ["string", "null"]
          },
          "application_type": {
            "$ref": "application_type.json#/properties/"
          },
          "security_test_repository": {
            "$ref": "security_test_repository.json#/properties/"
          },
          "test_types": {
            "type": "array"
          },
          "multi_host": {
            "type": "boolean"
          },
          "full_path": {
            "type": "string"
          },
          "created_at": {
            "type": "string"
          },
          "updated_at": {
            "type": "string"
          }
        },
        "required": [
          "security_test_repository_id",
          "id",
          "name",
          "prog_args",
          "default_config",
          "category",
          "configurable",
          "security_test_repository",
          "help_url",
          "full_path",
          "created_at",
          "updated_at"
        ]
      }
    }
  },
  "required": [
    "response"
  ]
}
